…
``` r
weather_nest %>% pull(data)
```

    ## <list_of<
    ##   tbl_df<
    ##     date: date
    ##     prcp: double
    ##     tmax: double
    ##     tmin: double
    ##   >
    ## >[3]>
    ## [[1]]
    ## # A tibble: 366 x 4
    ##    date        prcp  tmax  tmin
    ##    <date>     <dbl> <dbl> <dbl>
    ##  1 2016-01-01     0   5.6   1.1
    ##  2 2016-01-02     0   4.4   0  
    ##  3 2016-01-03     0   7.2   1.7
    ##  4 2016-01-04     0   2.2  -9.9
    ##  5 2016-01-05     0  -1.6 -11.6
    ##  6 2016-01-06     0   5    -3.8
    ##  7 2016-01-07     0   7.8  -0.5
    ##  8 2016-01-08     0   7.8  -0.5
    ##  9 2016-01-09     0   8.3   4.4
    ## 10 2016-01-10   457  15     4.4
    ## # … with 356 more rows
    ## 
    ## [[2]]
    ## # A tibble: 366 x 4
    ##    date        prcp  tmax  tmin
    ##    <date>     <dbl> <dbl> <dbl>
    ##  1 2016-01-01     0  29.4  16.7
    ##  2 2016-01-02     0  28.3  16.7
    ##  3 2016-01-03     0  28.3  16.7
    ##  4 2016-01-04     0  28.3  16.1
    ##  5 2016-01-05     0  27.2  16.7
    ##  6 2016-01-06     0  27.2  20  
    ##  7 2016-01-07    46  27.8  18.3
    ##  8 2016-01-08     3  28.3  17.8
    ##  9 2016-01-09     8  27.8  19.4
    ## 10 2016-01-10     3  28.3  18.3
    ## # … with 356 more rows
    ## 
    ## [[3]]
    ## # A tibble: 366 x 4
    ##    date        prcp  tmax  tmin
    ##    <date>     <dbl> <dbl> <dbl>
    ##  1 2016-01-01     0   1.7  -5.9
    ##  2 2016-01-02    25  -0.1  -6  
    ##  3 2016-01-03     0  -5   -10  
    ##  4 2016-01-04    25   0.3  -9.8
    ##  5 2016-01-05    25   1.9  -1.8
    ##  6 2016-01-06    25   1.4  -2.6
    ##  7 2016-01-07     0   1.4  -3.9
    ##  8 2016-01-08     0   1.1  -4  
    ##  9 2016-01-09     0   1.4  -4.5
    ## 10 2016-01-10     0   2.3  -3.8
    ## # … with 356 more rows

``` r
weather_nest$data[[1]]
```

    ## # A tibble: 366 x 4
    ##    date        prcp  tmax  tmin
    ##    <date>     <dbl> <dbl> <dbl>
    ##  1 2016-01-01     0   5.6   1.1
    ##  2 2016-01-02     0   4.4   0  
    ##  3 2016-01-03     0   7.2   1.7
    ##  4 2016-01-04     0   2.2  -9.9
    ##  5 2016-01-05     0  -1.6 -11.6
    ##  6 2016-01-06     0   5    -3.8
    ##  7 2016-01-07     0   7.8  -0.5
    ##  8 2016-01-08     0   7.8  -0.5
    ##  9 2016-01-09     0   8.3   4.4
    ## 10 2016-01-10   457  15     4.4
    ## # … with 356 more rows

``` r
weather_nest %>% 
  unnest()
```

    ## # A tibble: 1,098 x 6
    ##    name           id          date        prcp  tmax  tmin
    ##    <chr>          <chr>       <date>     <dbl> <dbl> <dbl>
    ##  1 CentralPark_NY USW00094728 2016-01-01     0   5.6   1.1
    ##  2 CentralPark_NY USW00094728 2016-01-02     0   4.4   0  
    ##  3 CentralPark_NY USW00094728 2016-01-03     0   7.2   1.7
    ##  4 CentralPark_NY USW00094728 2016-01-04     0   2.2  -9.9
    ##  5 CentralPark_NY USW00094728 2016-01-05     0  -1.6 -11.6
    ##  6 CentralPark_NY USW00094728 2016-01-06     0   5    -3.8
    ##  7 CentralPark_NY USW00094728 2016-01-07     0   7.8  -0.5
    ##  8 CentralPark_NY USW00094728 2016-01-08     0   7.8  -0.5
    ##  9 CentralPark_NY USW00094728 2016-01-09     0   8.3   4.4
    ## 10 CentralPark_NY USW00094728 2016-01-10   457  15     4.4
    ## # … with 1,088 more rows
…
napoleon
```

    ## # A tibble: 50 x 4
    ##     page title                     stars text                              
    ##    <int> <chr>                     <dbl> <chr>                             
    ##  1     1 "Classic an funny!\n    …     5 "Classic movie and hilarious!!!\n…
    ##  2     1 "I can watch this again …     5 "Great movie...classic\n         …
    ##  3     1 "Great quality!\n       …     5 "Great quality.\n            "    
    ##  4     1 "Good comedy\n          …     4 "Not as funny as I remember years…
    ##  5     1 "Awesome\n            "       5 "Favorite movie of all time\n    …
    ##  6     1 "yes\n            "           5 "good\n            "              
    ##  7     1 "Gotta watch it!\n      …     5 "Super fun cult film. A must-see!…
    ##  8     1 "Great movie\n          …     5 "Love this movie.\n            "  
    ##  9     1 "Duh\n            "           5 "Best movie ever\n            "   
    ## 10     1 "Great video\n          …     5 "Product as described.  Great tra…
    ## # … with 40 more rows
